Division,WeightClassKg,Place,Name,Team,BodyweightKg,Best3SquatKg,Best3BenchKg,Best3DeadliftKg,TotalKg,Equipment,Event,Sex
Boys,51.71,1,Charles Fentress,Woodville,51.57,104.33,68.04,113.4,285.76,Single-ply,SBD,M
Boys,51.71,2,Kz Smith,Coldspring-Oakhurst,47.63,97.52,52.16,102.06,251.74,Single-ply,SBD,M
Boys,51.71,3,Zac Thomas,Shepherd,49.21,95.25,47.63,74.84,217.72,Single-ply,SBD,M
Boys,51.71,4,Ryan Kerr,Conroe Woodlands College Park,41.1,52.16,31.75,56.7,140.61,Single-ply,SBD,M
Boys,59.87,1,Beau Burleson,Woodville,56.02,172.37,106.59,176.9,455.86,Single-ply,SBD,M
Boys,55.79,2,Josh Courvelle,Shepherd,54.48,113.4,61.23,124.74,299.37,Single-ply,SBD,M
Boys,55.79,3,Andrew Reamer,New Caney,54.7,120.2,58.97,120.2,299.37,Single-ply,SBD,M
Boys,55.79,4,Colton Lilley,Shepherd,55.07,97.52,61.23,106.59,265.35,Single-ply,SBD,M
Boys,55.79,5,Daquwan Mark,Huntsville,52.12,70.31,43.09,104.33,217.72,Single-ply,SBD,M
Boys,55.79,6,Joshua Richards,Huntsville,55.52,79.38,61.23,74.84,215.46,Single-ply,SBD,M
Boys,59.87,1,Eric Garza,Magnolia West,59.42,185.97,111.13,181.44,478.54,Single-ply,SBD,M
Boys,59.87,2,Miguel Montejano,Lovelady,56.61,156.49,97.52,172.37,426.38,Single-ply,SBD,M
Boys,59.87,3,Austin Alexander,Conroe Caney Creek,57.74,165.56,97.52,163.29,426.38,Single-ply,SBD,M
Boys,59.87,4,Nate Jones,Shepherd,59.01,142.88,92.99,156.49,392.36,Single-ply,SBD,M
Boys,59.87,5,Thomas Chambers,Liberty,59.6,131.54,74.84,154.22,360.61,Single-ply,SBD,M
Boys,67.13,6,James Bowen,Shepherd,60.06,113.4,99.79,136.08,349.27,Single-ply,SBD,M
Boys,59.87,7,Josh Goolsby,Huntsville,59.01,117.93,83.91,138.35,340.19,Single-ply,SBD,M
Boys,59.87,8,J Essix,Conroe Woodlands College Park,57.56,120.2,65.77,131.54,317.51,Single-ply,SBD,M
Boys,59.87,9,John Greene,Conroe Woodlands College Park,58.38,122.47,63.5,127.01,312.98,Single-ply,SBD,M
Boys,59.87,10,Gabe Ramirez,New Caney,59.01,108.86,77.11,111.13,297.1,Single-ply,SBD,M
Boys,59.87,11,Lance Snell,Conroe Caney Creek,59.83,120.2,72.57,83.91,276.69,Single-ply,SBD,M
Boys,59.87,12,Marcus Ingle,Conroe Caney Creek,59.33,79.38,83.91,102.06,265.35,Single-ply,SBD,M
Boys,59.87,13,Roger Kinder,Shepherd,58.97,88.45,56.7,104.33,249.48,Single-ply,SBD,M
Boys,59.87,DQ,Braeden Taylor,Shepherd,58.11,,,,,Single-ply,SBD,M
Boys,59.87,DQ,Todd Chapin,Conroe Caney Creek,59.38,102.06,,,,Single-ply,SBD,M
Boys,67.13,1,Thad Whigham,Woodville,64.32,190.51,111.13,199.58,501.22,Single-ply,SBD,M
Boys,67.13,2,David Muñoz,Shepherd,67.13,151.95,106.59,197.31,455.86,Single-ply,SBD,M
Boys,67.13,3,Egon Lyttle,New Caney Porter,67,174.63,102.06,163.29,439.98,Single-ply,SBD,M
Boys,67.13,4,Conner Jung,Conroe,66.18,161.03,102.06,165.56,428.64,Single-ply,SBD,M
Boys,67.13,5,Dwayne Colone,Beaumont Ozen,62.05,147.42,92.99,183.7,424.11,Single-ply,SBD,M
Boys,67.13,6,Darrin Walker,Liberty,65.32,136.08,86.18,165.56,387.82,Single-ply,SBD,M
Boys,67.13,7,Paul Wilkins,Shepherd,62.6,129.27,92.99,149.69,371.95,Single-ply,SBD,M
Boys,67.13,8,Randy Toson,Beaumont Ozen,65,120.2,86.18,151.95,358.34,Single-ply,SBD,M
Boys,67.13,9,Justin Anderson,New Caney,65.59,124.74,83.91,149.69,358.34,Single-ply,SBD,M
Boys,67.13,10,Ivan Espinosa,Cleveland,61.51,151.95,68.04,136.08,356.07,Single-ply,SBD,M
Boys,67.13,11,Aaron Valdez,Huntsville,66.32,115.67,95.25,145.15,356.07,Single-ply,SBD,M
Boys,67.13,12,Jacob McCain,Cleveland,66.9,129.27,79.38,142.88,351.53,Single-ply,SBD,M
Boys,67.13,13,Dustin West,Shepherd,60.78,147.42,74.84,122.47,344.73,Single-ply,SBD,M
Boys,67.13,14,Tim Moye,Woodville,66.09,136.08,68.04,131.54,335.66,Single-ply,SBD,M
Boys,67.13,15,DeMarcus Mitchell,Woodville,67.13,127.01,74.84,124.74,326.59,Single-ply,SBD,M
Boys,74.84,16,Cody Young,New Caney,67.18,124.74,65.77,129.27,319.78,Single-ply,SBD,M
Boys,67.13,17,Tristan Groh,Splendora,62.37,124.74,65.77,127.01,317.51,Single-ply,SBD,M
Boys,67.13,18,Carlos Hernandez #11,Splendora,65.09,113.4,65.77,133.81,312.98,Single-ply,SBD,M
Boys,67.13,19,Anthony McMullins,Splendora,63.96,122.47,79.38,108.86,310.71,Single-ply,SBD,M
Boys,67.13,20,Daniel Biehle,Conroe Caney Creek,66.5,120.2,70.31,115.67,306.17,Single-ply,SBD,M
Boys,67.13,21,Dillon Blackwell,Conroe Woodlands College Park,60.92,97.52,54.43,127.01,278.96,Single-ply,SBD,M
Boys,74.84,DQ,Josh Collins,Beaumont Ozen,67.27,129.27,88.45,,,Single-ply,SBD,M
Boys,67.13,DQ,Felix Gonzalez,Shepherd,67.13,,,,,Single-ply,SBD,M
Boys,67.13,DQ,Mike Vacinovich,New Caney,64.91,122.47,68.04,,,Single-ply,SBD,M
Boys,74.84,1,Ekikere Etokebe,New Caney Porter,73.94,201.85,117.93,204.12,523.9,Single-ply,SBD,M
Boys,82.1,2,Josh Whittleman,Shepherd,74.93,195.04,117.93,204.12,517.1,Single-ply,SBD,M
Boys,74.84,3,David Saucedo,Shepherd,70.53,183.7,120.2,201.85,505.76,Single-ply,SBD,M
Boys,74.84,4,Justin Releford,Woodville,72.39,185.97,97.52,190.51,474,Single-ply,SBD,M
Boys,74.84,5,Luis Guzman,Cleveland,72.08,185.97,97.52,179.17,462.66,Single-ply,SBD,M
Boys,74.84,6,Matt Gray,Conroe,72.35,165.56,117.93,172.37,455.86,Single-ply,SBD,M
Boys,74.84,7,Ontrevon Cooper,Coldspring-Oakhurst,74.03,190.51,106.59,156.49,453.59,Single-ply,SBD,M
Boys,74.84,8,Arthur Maxwell,Shepherd,74.84,181.44,90.72,181.44,453.59,Single-ply,SBD,M
Boys,74.84,9,Adrian Pallma,New Caney Porter,74.66,174.63,92.99,174.63,442.25,Single-ply,SBD,M
Boys,74.84,10,Jacob Cook,Splendora,70.62,158.76,102.06,163.29,424.11,Single-ply,SBD,M
Boys,74.84,11,Milton Mora,Lovelady,67.9,145.15,106.59,170.1,421.84,Single-ply,SBD,M
Boys,74.84,12,Johnathan Murphy,Huntsville,73.62,147.42,92.99,161.03,401.43,Single-ply,SBD,M
Boys,74.84,13,Thomas Guillen,Conroe,69.67,142.88,86.18,163.29,392.36,Single-ply,SBD,M
Boys,82.1,14,Robert Keilman,Shepherd,74.93,129.27,83.91,151.95,365.14,Single-ply,SBD,M
Boys,74.84,15,Brady Bynum,Magnolia West,69.22,145.15,83.91,133.81,362.87,Single-ply,SBD,M
Boys,74.84,16,Will Hicks,Magnolia West,69.99,136.08,70.31,149.69,356.07,Single-ply,SBD,M
Boys,74.84,17,Issac Espinosa,Huntsville,74.48,102.06,86.18,154.22,342.46,Single-ply,SBD,M
Boys,74.84,18,Earl Monroe,Beaumont Central,71.3,104.33,65.77,147.42,317.51,Single-ply,SBD,M
Boys,74.84,19,Xavier Mitchell,Beaumont Central,69.85,104.33,74.84,113.4,292.57,Single-ply,SBD,M
Boys,74.84,20,Tyler Schlittenhardt,Shepherd,73.48,113.4,68.04,108.86,290.3,Single-ply,SBD,M
Boys,74.84,21,Cody Long,Splendora,74.07,90.72,70.31,95.25,256.28,Single-ply,SBD,M
Boys,74.84,DQ,Kody Quibodeaux,Shepherd,72.67,92.99,56.7,104.33,,Single-ply,SBD,M
Boys,74.84,DQ,James Matthews,Shepherd,74.84,95.25,45.36,104.33,,Single-ply,SBD,M
Boys,74.84,DQ,Christopher Lewis,Beaumont Ozen,74.84,,,,,Single-ply,SBD,M
Boys,74.84,DQ,Kielan Jones,Beaumont Ozen,74.84,,,,,Single-ply,SBD,M
Boys,74.84,DQ,Doug Crow,Conroe Caney Creek,73.75,170.1,,,,Single-ply,SBD,M
Boys,74.84,DQ,Ty Higginbothom,Splendora,71.99,,,,,Single-ply,SBD,M
Boys,82.1,1,Justin Eberly,Conroe Caney Creek,79.74,233.6,127.01,242.67,603.28,Single-ply,SBD,M
Boys,82.1,2,Tyrell Franks,Cleveland,82.1,244.94,133.81,192.78,571.53,Single-ply,SBD,M
Boys,82.1,3,Adrian Randle,Magnolia West,80.01,238.14,102.06,215.46,555.65,Single-ply,SBD,M
Boys,82.1,4,Brett Boswell,Conroe Woodlands College Park,80.78,204.12,138.35,210.92,553.38,Single-ply,SBD,M
Boys,82.1,5,Christian Andrews,Beaumont Ozen,77.34,192.78,145.15,204.12,542.04,Single-ply,SBD,M
Boys,82.1,6,Dustin Meadows,Cleveland,79.38,199.58,129.27,183.7,512.56,Single-ply,SBD,M
Boys,82.1,7,Taylor Faridifar,Conroe,79.97,190.51,124.74,195.04,510.29,Single-ply,SBD,M
Boys,82.1,8,Corey Mitchell,Woodville,81.1,170.1,102.06,195.04,467.2,Single-ply,SBD,M
Boys,82.1,9,Eric Martin #4,Conroe,78.97,165.56,104.33,190.51,460.4,Single-ply,SBD,M
Boys,82.1,10,Blake Whitton,Cleveland,80.01,183.7,106.59,165.56,455.86,Single-ply,SBD,M
Boys,82.1,11,Patrick Bender,Conroe,81.6,161.03,117.93,174.63,453.59,Single-ply,SBD,M
Boys,82.1,12,Dalton Ramon,Huntsville,81.56,147.42,115.67,179.17,442.25,Single-ply,SBD,M
Boys,82.1,13,Jj Swinford,Coldspring-Oakhurst,80.24,142.88,99.79,170.1,412.77,Single-ply,SBD,M
Boys,82.1,14,Chris Ferguson,New Caney,75.75,163.29,97.52,149.69,410.5,Single-ply,SBD,M
Boys,82.1,15,James Perkins,Shepherd,79.56,142.88,83.91,142.88,369.68,Single-ply,SBD,M
Boys,82.1,16,Clay McGuire,New Caney,78.88,120.2,74.84,147.42,342.46,Single-ply,SBD,M
Boys,89.81,17,Phillip Holden,Shepherd,82.19,106.59,58.97,149.69,315.25,Single-ply,SBD,M
Boys,82.1,DQ,Kevin Gonzales,Splendora,75.61,,,,,Single-ply,SBD,M
Boys,82.1,DQ,Marcus Pappillion,Liberty,77.29,158.76,81.65,,,Single-ply,SBD,M
Boys,89.81,1,Trey Annonson,Cleveland,87.09,238.14,154.22,197.31,589.67,Single-ply,SBD,M
Boys,89.81,2,Cesar Yepes,New Caney Porter,88.63,206.38,165.56,215.46,587.4,Single-ply,SBD,M
Boys,89.81,3,Anthony Breed,Beaumont Ozen,88.95,204.12,142.88,222.26,569.26,Single-ply,SBD,M
Boys,89.81,4,Joey Johnson,Magnolia West,88.54,183.7,145.15,224.53,553.38,Single-ply,SBD,M
Boys,89.81,5,Erick Barceras,Conroe,85.68,185.97,131.54,185.97,503.49,Single-ply,SBD,M
Boys,89.81,6,Dante Ruiz,Magnolia West,89.13,174.63,124.74,204.12,503.49,Single-ply,SBD,M
Boys,89.81,7,Garrett Derouren,Woodville,87.82,174.63,113.4,183.7,471.74,Single-ply,SBD,M
Boys,89.81,8,Zach Griffin,Beaumont Central,88.22,158.76,108.86,199.58,467.2,Single-ply,SBD,M
Boys,89.81,9,Jason Paul,Conroe Woodlands College Park,85.41,176.9,104.33,172.37,453.59,Single-ply,SBD,M
Boys,89.81,10,McCade Trim,Magnolia West,88,167.83,111.13,174.63,453.59,Single-ply,SBD,M
Boys,89.81,11,Kyle Ray,Splendora,88.13,167.83,90.72,172.37,430.91,Single-ply,SBD,M
Boys,89.81,12,Preston Thomas,Shepherd,86.18,181.44,97.52,147.42,426.38,Single-ply,SBD,M
Boys,89.81,13,Chris Mann,Cleveland,83.14,167.83,79.38,167.83,415.04,Single-ply,SBD,M
Boys,89.81,14,Felix Johnson,Woodville,83.42,147.42,95.25,145.15,387.82,Single-ply,SBD,M
Boys,89.81,15,Kingston Griffen,Beaumont Central,84.82,74.84,79.38,115.67,269.89,Single-ply,SBD,M
Boys,89.81,DQ,Wilbert Jones,Beaumont Central,87.54,74.84,,,,Single-ply,SBD,M
Boys,89.81,DQ,Tyler Anderson,Magnolia West,88.41,158.76,129.27,,,Single-ply,SBD,M
Boys,89.81,DQ,Adrian Lacy,Woodville,88.72,192.78,,,,Single-ply,SBD,M
Boys,99.79,1,Josh Gutierrez,Magnolia West,94.17,249.48,129.27,242.67,621.42,Single-ply,SBD,M
Boys,99.79,2,Joseph Stover,Coldspring-Oakhurst,99.65,238.14,136.08,229.06,603.28,Single-ply,SBD,M
Boys,109.77,3,Sam Heaton,Conroe Woodlands College Park,99.97,219.99,97.52,226.8,544.31,Single-ply,SBD,M
Boys,99.79,4,Chad Campagna,Conroe,98.16,201.85,138.35,181.44,521.63,Single-ply,SBD,M
Boys,99.79,5,Luke Mangum,Liberty,90.95,197.31,99.79,190.51,487.61,Single-ply,SBD,M
Boys,99.79,6,Jacob Perry,Conroe Caney Creek,99.79,170.1,113.4,204.12,487.61,Single-ply,SBD,M
Boys,99.79,7,Lorezo Flores,Conroe Caney Creek,91.63,183.7,108.86,181.44,474,Single-ply,SBD,M
Boys,109.77,8,Jonathan Swint,Coldspring-Oakhurst,99.97,179.17,120.2,174.63,474,Single-ply,SBD,M
Boys,99.79,9,Michael Rottiger,Huntsville,95.16,172.37,111.13,174.63,458.13,Single-ply,SBD,M
Boys,99.79,10,Joseph Flores,Conroe Caney Creek,96.3,188.24,106.59,158.76,453.59,Single-ply,SBD,M
Boys,99.79,11,Oziel Delatorrie,Cleveland,95.21,154.22,88.45,190.51,433.18,Single-ply,SBD,M
Boys,99.79,12,Cody Skrivanek,Magnolia West,97.16,158.76,99.79,167.83,426.38,Single-ply,SBD,M
Boys,99.79,13,Josh Jeffus,Lovelady,96.75,147.42,92.99,170.1,410.5,Single-ply,SBD,M
Boys,99.79,DQ,Brett Atwood,Cleveland,93.85,176.9,95.25,161.03,,Single-ply,SBD,M
Boys,99.79,DQ,Angus Roberts,Liberty,95.57,,,,,Single-ply,SBD,M
Boys,109.77,1,Bridge Blount,Huntsville,107.18,272.16,151.95,285.76,709.87,Single-ply,SBD,M
Boys,109.77,2,Joaquin Trevino,Splendora,106.41,254.01,185.97,217.72,657.71,Single-ply,SBD,M
Boys,109.77,3,Allen Harris,Beaumont Central,100.97,242.67,131.54,251.74,625.96,Single-ply,SBD,M
Boys,109.77,4,Caleb Etheridge,New Caney,101.33,235.87,149.69,231.33,616.89,Single-ply,SBD,M
Boys,109.77,5,Jacob Courvelle,Shepherd,100.33,233.6,136.08,240.4,610.08,Single-ply,SBD,M
Boys,109.77,6,Corey Washington,Huntsville,109.32,204.12,129.27,215.46,548.85,Single-ply,SBD,M
Boys,109.77,7,Steve Stone,Conroe,109.68,226.8,120.2,188.24,535.24,Single-ply,SBD,M
Boys,109.77,8,Randol Wiggins,Liberty,106.73,213.19,120.2,195.04,528.44,Single-ply,SBD,M
Boys,109.77,9,Frankie Garcia,Conroe Woodlands College Park,106.87,204.12,117.93,206.38,528.44,Single-ply,SBD,M
Boys,109.77,10,Randall Richards,Cleveland,100.11,190.51,106.59,208.65,505.76,Single-ply,SBD,M
Boys,109.77,11,Perry Stevens,Liberty,107.73,154.22,99.79,195.04,449.06,Single-ply,SBD,M
Boys,109.77,DQ,David Kierum,New Caney,108.41,217.72,,,,Single-ply,SBD,M
Boys,109.77,DQ,Cj Duenas,Coldspring-Oakhurst,101.06,242.67,122.47,,,Single-ply,SBD,M
Boys,124.74,1,Glenn Salisbury,Conroe Caney Creek,117.53,272.16,188.24,238.14,698.53,Single-ply,SBD,M
Boys,124.74,2,Nick Quintanar,Splendora,116.17,226.8,136.08,219.99,582.87,Single-ply,SBD,M
Boys,124.74,3,Dimitri Forsythe,Conroe,122.97,206.38,131.54,226.8,564.72,Single-ply,SBD,M
Boys,124.74,4,Tyler Cromeens,Splendora,116.85,197.31,111.13,217.72,526.17,Single-ply,SBD,M
Boys,124.74,5,Codye Hecker,Shepherd,115.67,226.8,113.4,172.37,512.56,Single-ply,SBD,M
Boys,124.74+,6,Thalan Payne,Beaumont Ozen,124.83,181.44,120.2,210.92,512.56,Single-ply,SBD,M
Boys,124.74,7,Chris Riddick,Liberty,110.4,190.51,97.52,197.31,485.34,Single-ply,SBD,M
Boys,124.74,8,Ivan Estipona,New Caney Porter,123.01,219.99,102.06,161.03,483.08,Single-ply,SBD,M
Boys,124.74,9,Von Cross,Coldspring-Oakhurst,112.81,161.03,88.45,185.97,435.45,Single-ply,SBD,M
Boys,124.74,10,Bradley Carley,Conroe Woodlands College Park,120.88,158.76,108.86,167.83,435.45,Single-ply,SBD,M
Boys,124.74,11,Josh Sterling,Liberty,112.22,181.44,86.18,154.22,421.84,Single-ply,SBD,M
Boys,124.74,12,Michael DeJournett,Conroe Woodlands College Park,113.72,161.03,95.25,163.29,419.57,Single-ply,SBD,M
Boys,124.74+,13,Kevin Keasling,Shepherd,124.92,113.4,61.23,147.42,322.05,Single-ply,SBD,M
Boys,124.74,DQ,Austin Howard,Liberty,110.5,176.9,,,,Single-ply,SBD,M
Boys,124.74+,1,Cullen Burch,Cleveland,139.57,272.16,188.24,199.58,659.98,Single-ply,SBD,M
Boys,124.74+,2,Justin Smith #18,New Caney,131.09,260.82,192.78,199.58,653.17,Single-ply,SBD,M
Boys,124.74+,3,Josh Sell,Liberty,146.69,249.48,174.63,226.8,650.91,Single-ply,SBD,M
Boys,124.74+,4,Nolan Walker,Coldspring-Oakhurst,126.82,242.67,138.35,226.8,607.81,Single-ply,SBD,M
Boys,124.74+,5,Nashawn Edwards,Beaumont Ozen,153.27,249.48,129.27,226.8,605.55,Single-ply,SBD,M
Boys,124.74+,6,Cory Kelly,Magnolia West,127.05,229.06,122.47,226.8,578.33,Single-ply,SBD,M
Boys,124.74+,7,James Crowley,New Caney Porter,138.75,181.44,127.01,181.44,489.88,Single-ply,SBD,M
Boys,124.74+,DQ,Michael Laughlin,Coldspring-Oakhurst,134.85,174.63,120.2,,,Single-ply,SBD,M
Boys,124.74+,DQ,Cody Britton,Conroe Caney Creek,141.93,,,,,Single-ply,SBD,M
Boys,124.74+,DQ,JR Vanette,Huntsville,129.68,217.72,149.69,,,Single-ply,SBD,M
